<?xml version="1.0" encoding="UTF-8" standalone="no"?>
<!-- Creator: CorelDRAW X6 -->

<svg
   xmlns:dc="http://purl.org/dc/elements/1.1/"
   xmlns:cc="http://creativecommons.org/ns#"
   xmlns:rdf="http://www.w3.org/1999/02/22-rdf-syntax-ns#"
   xmlns:svg="http://www.w3.org/2000/svg"
   xmlns="http://www.w3.org/2000/svg"
   xmlns:sodipodi="http://sodipodi.sourceforge.net/DTD/sodipodi-0.dtd"
   xmlns:inkscape="http://www.inkscape.org/namespaces/inkscape"
   xml:space="preserve"
   width="500"
   height="500"
   version="1.1"
   style="clip-rule:evenodd;fill-rule:evenodd;image-rendering:optimizeQuality;shape-rendering:geometricPrecision;text-rendering:geometricPrecision"
   viewBox="0 0 5208.2038 5209.1061"
   id="svg10"
   sodipodi:docname="loomio.svg"
   inkscape:version="0.92.4 (5da689c313, 2019-01-14)"><metadata
   id="metadata14"><rdf:RDF><cc:Work
       rdf:about=""><dc:format>image/svg+xml</dc:format><dc:type
         rdf:resource="http://purl.org/dc/dcmitype/StillImage" /><dc:title></dc:title></cc:Work></rdf:RDF></metadata><sodipodi:namedview
   pagecolor="#ffffff"
   bordercolor="#666666"
   borderopacity="1"
   objecttolerance="10"
   gridtolerance="10"
   guidetolerance="10"
   inkscape:pageopacity="0"
   inkscape:pageshadow="2"
   inkscape:window-width="1600"
   inkscape:window-height="831"
   id="namedview12"
   showgrid="false"
   inkscape:zoom="0.57778517"
   inkscape:cx="67.582672"
   inkscape:cy="154.36671"
   inkscape:window-x="0"
   inkscape:window-y="32"
   inkscape:window-maximized="1"
   inkscape:current-layer="svg10"
   units="px"
   inkscape:pagecheckerboard="true" />
 <defs
   id="defs4">
  <style
   type="text/css"
   id="style2">
   <![CDATA[
    .fil0 {fill:#F3AE2D;fill-rule:nonzero}
   ]]>
  </style>
 
  
  
 <clipPath
   clipPathUnits="userSpaceOnUse"
   id="clipPath832"><rect
     style="opacity:1;fill:#ffffff;fill-opacity:1;stroke:none;stroke-width:96.98332977;stroke-miterlimit:4;stroke-dasharray:none;stroke-opacity:1"
     id="rect834"
     width="2266.0237"
     height="2366.7358"
     x="-3419.5327"
     y="4524.0352" /></clipPath></defs>
 
<path
   class="fil0"
   d="m -3371.6024,6782.3855 c -55.9999,-27.9999 -64.9999,-113.9998 -15.9999,-144.9998 12.9999,-8 82.9998,-28.9999 155.9997,-44.9999 316.9995,-70.9999 601.9991,-211.9997 779.9988,-384.9994 l 56.9999,-54.9999 -53.9999,-88.9999 c -59.9999,-99.9998 -112.9998,-227.9996 -143.9998,-350.9994 -100.9998,-393.9994 -19.9999,-954.9986 160.9998,-1121.9983 148.9998,-136.9998 330.9995,-55.9999 422.9993,188.9997 59.9999,159.9997 76.9999,282.9995 77.9999,541.9991 1,294.9996 -19.9999,406.9994 -111.9998,611.9991 l -30,66.9999 -37.9999,-36.9999 c -21,-20 -47.9999,-53 -59.9999,-72.9999 l -22,-36 24,-63.9999 c 45.9999,-121.9998 66.9999,-238.9996 73.9999,-397.9994 13,-298.9995 -48,-580.9991 -144.9998,-670.9989 -25,-23 -33,-25 -55.9999,-14 -80.9999,36.9999 -152.9998,266.9996 -168.9998,536.9992 -30.9999,539.9991 222.9997,967.9985 714.9989,1205.9981 122.9999,58.9999 289.9996,115.9998 441.9994,147.9998 125.9998,27 151.9997,44.9999 152.9997,105.9998 1,50 -31.9999,82.9999 -84.9998,82.9999 -56,0 -219.9997,-39.9999 -360.9995,-86.9999 -231.9996,-77.9998 -447.9993,-199.9997 -596.9991,-337.9994 l -76.9999,-70.9999 -94.9998,80.9998 c -196.9997,167.9998 -412.9994,280.9996 -688.999,359.9995 -173.9997,49.9999 -281.9995,67.9999 -312.9995,51.9999 z M 586.39157,6357.3862 c -243.99963,-41 -406.99938,-224.9997 -428.99935,-483.9993 -34.99994,-413.9994 317.99952,-688.9989 723.99889,-562.9991 209.99969,64.9999 338.99949,257.9996 338.99949,503.9992 0,169.9997 -48.9999,300.9995 -147.9998,400.9994 -113.9998,113.9998 -309.9995,170.9997 -484.99924,141.9998 z m 271.99958,-156.9998 c 127.9998,-56.9999 194.99975,-171.9997 202.99965,-345.9995 8,-173.9997 -38.9999,-297.9995 -139.99975,-371.9994 -163.99975,-118.9998 -421.99935,-86.9999 -533.99918,66.9999 -108.99983,149.9998 -100.99985,428.9993 17.99997,566.9991 31.99995,38 93.99986,78.9999 147.99978,97.9999 72.99988,25.9999 231.99964,19 305.99953,-14 z m 910.99865,152.9998 c -142.9998,-29 -283.9996,-133.9998 -342.9995,-256.9996 -81.9999,-166.9998 -79.9999,-393.9994 5,-552.9992 98.9998,-185.9997 322.9995,-290.9995 547.9991,-256.9996 166.9998,25 277.9996,89.9999 358.9995,210.9997 58.9999,86.9998 80.9999,157.9997 88.9998,281.9995 17,269.9996 -105.9998,472.9993 -336.9994,553.9992 -76.9999,27 -238.9997,36.9999 -320.9995,20 z m 307.9995,-157.9998 c 123.9998,-60.9999 186.9997,-169.9997 194.9997,-341.9995 10,-198.9997 -54.9999,-331.9995 -191.9997,-399.9994 -176.9998,-86.9998 -398.9994,-37.9999 -490.9993,108.9999 -51.9999,81.9999 -63.9999,129.9998 -62.9999,258.9996 1,211.9997 73.9999,333.9995 237.9997,392.9994 79.9998,28.9999 233.9996,20 313.9995,-19 z m 2670.9959,152.9998 c -188.9997,-46 -331.9995,-191.9997 -371.9994,-379.9994 -39,-183.9998 2,-381.9995 106.9998,-510.9993 177.9997,-219.9996 572.9991,-236.9996 786.9988,-33.9999 171.9997,162.9997 208.9997,481.9993 79.9999,700.9989 -107.9999,184.9997 -365.9995,280.9996 -600.9991,223.9997 z m 276.9996,-131.9998 c 165.9997,-50.9999 264.9996,-229.9997 243.9996,-442.9993 -15,-155.9998 -91.9999,-277.9996 -207.9997,-329.9995 -80.9999,-36 -255.9996,-38 -330.9995,-3 -151.9997,69.9999 -216.9996,197.9997 -208.9997,408.9993 4,93.9999 10,123.9999 35,178.9998 46.9999,100.9998 109.9998,157.9997 210.9997,189.9997 63.9999,19.9999 191.9997,18.9999 257.9996,-1 z m -2430.9963,126.9998 c -12,-7 -20,-26 -20,-46.9999 0,-20 20,-240.9997 46,-490.9993 30.9999,-303.9995 50.9999,-463.9993 61.9999,-480.9993 21.9999,-34.9999 96.9998,-34.9999 127.9998,0 11.9999,14 95.9998,178.9998 185.9997,365.9995 89.9998,187.9997 166.9997,344.9995 171.9997,348.9994 4,4 85.9999,-150.9997 180.9997,-344.9994 95.9999,-193.9997 182.9998,-362.9995 194.9997,-373.9994 30,-30 104.9999,-29 120.9999,1.9999 10.9999,21 99.9998,878.9987 99.9998,968.9986 0,34.9999 -5,43.9999 -28,52.9999 -40.9999,16 -65.9999,13 -91.9998,-9 -21,-18 -26,-46.9999 -51.9999,-363.9994 -16,-188.9998 -32,-352.9995 -36,-363.9995 -5,-14 -53.9999,76.9999 -160.9997,299.9996 -84.9999,175.9997 -160.9998,330.9994 -169.9998,344.9994 -19.9999,31 -80.9999,34 -105.9998,6 -9,-11 -85.9999,-164.9997 -170.9998,-343.9995 -84.9998,-178.9997 -155.9997,-321.9995 -158.9997,-318.9995 -3,3 -21,167.9998 -39.9999,366.9995 -19,198.9997 -40,365.9994 -46,371.9994 -17,17 -84.9998,23 -105.9998,10 z m 1432.9978,4 c -11,-3 -25,-18 -31,-33 -5.9999,-15.9999 -9.9999,-229.9996 -9.9999,-496.9992 0,-528.9992 -2,-517.9992 76.9998,-517.9992 81.9999,0 78.9999,-19 78.9999,523.9992 0,368.9994 -3,487.9992 -14,501.9992 -14.9999,20 -67.9999,32 -100.9998,23 z m -4554.99303,-16 c -17.99997,-11 -18.99997,-46.9999 -18.99997,-508.9992 0,-371.9994 3,-500.9993 12.99998,-510.9992 6.99999,-7 31.99995,-13 54.99992,-13 78.99988,0 75.99988,-16 75.99988,472.9993 v 437.9993 h 233.99964 c 139.999788,0 242.999632,5 255.999613,12 14.999977,8 21.999967,22.9999 21.999967,48.9999 0,71.9999 -2,72.9999 -325.9995,71.9999 -176.99973,0 -298.99955,-5 -309.99953,-12 z"
   id="path826"
   inkscape:connector-curvature="0"
   style="fill:#ffffff;fill-opacity:0.93805309;fill-rule:nonzero;stroke-width:0.99999845"
   clip-path="url(#clipPath832)"
   transform="matrix(2.2987871,0,0,2.2987871,7860.3266,-10399.794)" /></svg>